…
nb_fit <- fit(nb_wkflow, titanic_train)
```

    ## Warning: Interaction specification failed for: ~sex:fare. No interactions will
    ## be created.

9.  

``` r
predict(log_fit, new_data = titanic_train, type = "prob")
```

    ## # A tibble: 712 x 2
    ##    .pred_No .pred_Yes
    ##       <dbl>     <dbl>
    ##  1    0.930    0.0704
    ##  2    0.666    0.334 
    ##  3    0.894    0.106 
    ##  4    0.848    0.152 
    ##  5    0.976    0.0244
    ##  6    0.211    0.789 
    ##  7    0.933    0.0674
    ##  8    0.440    0.560 
    ##  9    0.901    0.0990
    ## 10    0.863    0.137 
    ## # ... with 702 more rows

``` r
predict(lda_fit, new_data = titanic_train, type = "prob")
```

    ## # A tibble: 712 x 2
    ##    .pred_No .pred_Yes
    ##       <dbl>     <dbl>
    ##  1    0.952    0.0478
    ##  2    0.724    0.276 
    ##  3    0.925    0.0745
    ##  4    0.896    0.104 
    ##  5    0.985    0.0147
    ##  6    0.165    0.835 
    ##  7    0.951    0.0487
    ##  8    0.354    0.646 
    ##  9    0.933    0.0673
    ## 10    0.872    0.128 
    ## # ... with 702 more rows

``` r
predict(qda_fit, new_data = titanic_train, type = "prob")
```

    ## # A tibble: 712 x 2
    ##         .pred_No .pred_Yes
    ##            <dbl>     <dbl>
    ##  1 0.970         0.0301   
    ##  2 0.642         0.358    
    ##  3 0.999         0.00136  
    ##  4 0.929         0.0710   
    ##  5 1.00          0.0000123
    ##  6 0.244         0.756    
    ##  7 1.00          0.0000101
    ##  8 0.989         0.0114   
    ##  9 0.956         0.0438   
    ## 10 0.00000000145 1.00     
    ## # ... with 702 more rows

``` r
predict(nb_fit, new_data = titanic_train, type = "prob")
```

    ## # A tibble: 712 x 2
    ##       .pred_No .pred_Yes
    ##          <dbl>     <dbl>
    ##  1 0.966       0.0341   
    ##  2 0.584       0.416    
    ##  3 0.999       0.000841 
    ##  4 0.960       0.0397   
    ##  5 0.999       0.000533 
    ##  6 0.414       0.586    
    ##  7 1.00        0.0000130
    ##  8 0.979       0.0211   
    ##  9 0.964       0.0357   
    ## 10 0.000000121 1.00     
    ## # ... with 702 more rows
…
